{
    "photos": {
        "page": 1,
        "pages": 50,
        "perpage": 20,
        "total": 1000,
        "photo": [
            {
                "id": "53149414012",
                "owner": "198887613@N05",
                "secret": "4cae282091",
                "server": "65535",
                "farm": 66,
                "title": "Roaring Crowds: The Electric Atmosphere at Saltdion Batuah Buntok Football Stadium",
                "ispublic": 1,
                "isfriend": 0,
                "isfamily": 0
            },
            {
                "id": "53149414877",
                "owner": "14384441@N00",
                "secret": "8875f93159",
                "server": "65535",
                "farm": 66,
                "title": "today\u2019s my first day of teaching this fall term \u2014 wish me luck!",
                "ispublic": 1,
                "isfriend": 0,
                "isfamily": 0
            },
            {
                "id": "53149415662",
                "owner": "188471903@N05",
                "secret": "efd38f1e05",
                "server": "65535",
                "farm": 66,
                "title": "C30sss",
                "ispublic": 1,
                "isfriend": 0,
                "isfamily": 0
            },
            {
                "id": "53149416287",
                "owner": "12639178@N07",
                "secret": "06916586ff",
                "server": "65535",
                "farm": 66,
                "title": "Gentiana cf acaulis",
                "ispublic": 1,
                "isfriend": 0,
                "isfamily": 0
            },
            {
                "id": "53149989861",
                "owner": "161072348@N03",
                "secret": "642971fab6",
                "server": "65535",
                "farm": 66,
                "title": "Hooibeestje 7",
                "ispublic": 1,
                "isfriend": 0,
                "isfamily": 0
            },
            {
                "id": "53149990256",
                "owner": "144537420@N05",
                "secret": "13cb09a220",
                "server": "65535",
                "farm": 66,
                "title": "Que buen color tiene el clima.",
                "ispublic": 1,
                "isfriend": 0,
                "isfamily": 0
            },
            {
                "id": "53149990531",
                "owner": "124339607@N04",
                "secret": "22da19a098",
                "server": "65535",
                "farm": 66,
                "title": "Omni Air International  Boeing 767-300 N378AX",
                "ispublic": 1,
                "isfriend": 0,
                "isfamily": 0
            },
            {
                "id": "53149991401",
                "owner": "164543460@N04",
                "secret": "6a21f25fda",
                "server": "65535",
                "farm": 66,
                "title": "P A L M",
                "ispublic": 1,
                "isfriend": 0,
                "isfamily": 0
            },
            {
                "id": "53149992196",
                "owner": "47515486@N05",
                "secret": "95c893b241",
                "server": "65535",
                "farm": 66,
                "title": "Llanddwyn Island 2023",
                "ispublic": 1,
                "isfriend": 0,
                "isfamily": 0
            },
            {
                "id": "53149992356",
                "owner": "8513015@N06",
                "secret": "9fc9f7aa4b",
                "server": "65535",
                "farm": 66,
                "title": "",
                "ispublic": 1,
                "isfriend": 0,
                "isfamily": 0
            },
            {
                "id": "53149992391",
                "owner": "185620822@N05",
                "secret": "ef7699fac6",
                "server": "65535",
                "farm": 66,
                "title": "Meine Nachbarin\/My neighbour",
                "ispublic": 1,
                "isfriend": 0,
                "isfamily": 0
            },
            {
                "id": "53150195309",
                "owner": "63052323@N00",
                "secret": "9a1b4c2a5f",
                "server": "65535",
                "farm": 66,
                "title": "Urreal",
                "ispublic": 1,
                "isfriend": 0,
                "isfamily": 0
            },
            {
                "id": "53150422980",
                "owner": "60736976@N07",
                "secret": "8ce596ac2f",
                "server": "65535",
                "farm": 66,
                "title": "It's the new, expanded \u00a1En YO! in Cassandra City!",
                "ispublic": 1,
                "isfriend": 0,
                "isfamily": 0
            },
            {
                "id": "53150423300",
                "owner": "128115917@N08",
                "secret": "088986cd24",
                "server": "65535",
                "farm": 66,
                "title": "Bluejay",
                "ispublic": 1,
                "isfriend": 0,
                "isfamily": 0
            },
            {
                "id": "53150424470",
                "owner": "46268749@N06",
                "secret": "c25da39568",
                "server": "65535",
                "farm": 66,
                "title": "Abney Park Cemetery",
                "ispublic": 1,
                "isfriend": 0,
                "isfamily": 0
            },
            {
                "id": "53150486513",
                "owner": "189061051@N03",
                "secret": "11b695284e",
                "server": "65535",
                "farm": 66,
                "title": "My website is top on the MSN search suggestion of \u2018tung lam\u2019.",
                "ispublic": 1,
                "isfriend": 0,
                "isfamily": 0
            },
            {
                "id": "53150487438",
                "owner": "24000276@N05",
                "secret": "1c88c39137",
                "server": "65535",
                "farm": 66,
                "title": "_R7X5451",
                "ispublic": 1,
                "isfriend": 0,
                "isfamily": 0
            },
            {
                "id": "53150488293",
                "owner": "193522113@N05",
                "secret": "43cccb79fd",
                "server": "65535",
                "farm": 66,
                "title": "SMB100E 963",
                "ispublic": 1,
                "isfriend": 0,
                "isfamily": 0
            },
            {
                "id": "53150488518",
                "owner": "16564965@N04",
                "secret": "0f8da8a0d4",
                "server": "65535",
                "farm": 66,
                "title": "Centro Cultural Ba\u00f1os \u00c1rabes",
                "ispublic": 1,
                "isfriend": 0,
                "isfamily": 0
            },
            {
                "id": "53150488713",
                "owner": "43103590@N05",
                "secret": "96ba4bca3f",
                "server": "65535",
                "farm": 66,
                "title": "sleeping in the carrier",
                "ispublic": 1,
                "isfriend": 0,
                "isfamily": 0
            }
        ]
    },
    "stat": "ok"
}